%YAML 1.1
%TAG !u! tag:unity3d.com,2011:
--- !u!1 &7606531919527334328
GameObject:
  m_ObjectHideFlags: 0
  m_CorrespondingSourceObject: {fileID: 0}
  m_PrefabInstance: {fileID: 0}
  m_PrefabAsset: {fileID: 0}
  serializedVersion: 6
  m_Component:
  - component: {fileID: 7606531919527334330}
  - component: {fileID: 7606531919527334331}
  - component: {fileID: 7606531919527334309}
  m_Layer: 0
  m_Name: Realtime + Hoverbird Player
  m_TagString: Untagged
  m_Icon: {fileID: 0}
  m_NavMeshLayer: 0
  m_StaticEditorFlags: 0
  m_IsActive: 1
--- !u!4 &7606531919527334330
Transform:
  m_ObjectHideFlags: 0
  m_CorrespondingSourceObject: {fileID: 0}
  m_PrefabInstance: {fileID: 0}
  m_PrefabAsset: {fileID: 0}
  m_GameObject: {fileID: 7606531919527334328}
  serializedVersion: 2
  m_LocalRotation: {x: 0, y: 0, z: 0, w: 1}
  m_LocalPosition: {x: 0, y: 0, z: 0}
  m_LocalScale: {x: 1, y: 1, z: 1}
  m_ConstrainProportionsScale: 0
  m_Children: []
  m_Father: {fileID: 0}
  m_LocalEulerAnglesHint: {x: 0, y: 0, z: 0}
--- !u!114 &7606531919527334331
MonoBehaviour:
  m_ObjectHideFlags: 0
  m_CorrespondingSourceObject: {fileID: 0}
  m_PrefabInstance: {fileID: 0}
  m_PrefabAsset: {fileID: 0}
  m_GameObject: {fileID: 7606531919527334328}
  m_Enabled: 1
  m_EditorHideFlags: 0
  m_Script: {fileID: -1424795628, guid: 30f4fd177e1fad742be136a8237ab587, type: 3}
  m_Name: 
  m_EditorClassIdentifier: 
  _obsoleteAppKey: 
  _normcoreAppSettings: {fileID: 11400000, guid: d34143dc7c9f8824a9e99882f44fb62c, type: 2}
  _roomToJoinOnStart: Test Room
  _joinRoomOnStart: 1
--- !u!114 &7606531919527334309
MonoBehaviour:
  m_ObjectHideFlags: 0
  m_CorrespondingSourceObject: {fileID: 0}
  m_PrefabInstance: {fileID: 0}
  m_PrefabAsset: {fileID: 0}
  m_GameObject: {fileID: 7606531919527334328}
  m_Enabled: 1
  m_EditorHideFlags: 0
  m_Script: {fileID: 11500000, guid: c3a535c453daa489ab6893ba6eb2af7a, type: 3}
  m_Name: 
  m_EditorClassIdentifier: 
  _camera: {fileID: 0}
  _prefab: {fileID: 6267176139253920899, guid: 78e8935bcc34544a494c2d462dd3eceb, type: 3}
